Advent
…
chop directory into chunks

net_directory_size = index_directory(file) |> 
  map_dbl(~cdls_commands[.x] |> get_netsize())

produce a vector of named directory

directory_summary <- data.frame(net_dir_size = net_directory_size) |> 
  rownames_to_column("dir_name") |> 
  mutate(subs = map(dir_name, ~grep(paste0("^",.x), net_directory_size |> names()))) |> 
  mutate(total_size = map_dbl(subs, ~sum(net_directory_size[.x]))) |> 
  as_tibble()
directory_summary

# A tibble: 206 × 4
   dir_name                      net_dir_size subs        total_size
   <chr>                                <dbl> <list>           <dbl>
 1 /                                   305959 <int [206]>   46975962
 2 //ddgtnw                            324527 <int [20]>     5672556
 3 //ddgtnw/gftgshl                         0 <int [5]>      1678636
 4 //ddgtnw/gftgshl/mtshhn             442860 <int [1]>       442860
 5 //ddgtnw/gftgshl/smnslwd           1017250 <int [2]>      1038227
 6 //ddgtnw/gftgshl/smnslwd/grct        20977 <int [1]>        20977
 7 //ddgtnw/gftgshl/znbs               197549 <int [1]>       197549
 8 //ddgtnw/grct                       401244 <int [1]>       401244
 9 //ddgtnw/wtgzgmvr                   153202 <int [13]>     3268149
10 //ddgtnw/wtgzgmvr/cfvjph            201215 <int [1]>       201215
# … with 196 more rows
…
